{
    "index": {
        "download_fdroid": "Lataa F-Droid",
        "gpg_signature": "PGP-allekirjoitus",
        "introduction": "F-Droid on asennettava luettelo FOSS (Free and Open Source Software) -sovelluksista Android-alustalle. Tämän sovelluksen avulla on helppo selata, asentaa ja seurata laitteen päivityksiä.",
        "screenshot": "F-Droidin Android-sovelluksen kuvakaappaus",
        "title": "Mikä on F-Droid?"
    },
    "navigation": {
        "about": "Tietoja",
        "browse": "Selaa",
        "contribute": "Osallistu",
        "documentation": "Dokumentit",
        "forum": "Foorumi",
        "issues": "Ongelmat",
        "news": "Uutiset"
    },
    "package": {
        "anti_features": "Anti-ominaisuudet",
        "anti_features_warning": "Tässä sovelluksessa on ominaisuuksia, joista et ehkä pidä.",
        "author": "Tekijä",
        "build_metadata": "Metatiedot",
        "changelog": "Muutosloki",
        "donate": "Lahjoita",
        "download": "Lataa [file_extension]",
        "flattr": "Flattr",
        "gpg_signature": "PGP-allekirjoitus",
        "issue_tracker": "Ongelmien seuranta",
        "liberapay": "Liberapay",
        "license": "Lisenssi",
        "minimum_android_version": "Tämä versio vaatii Android [android_version]:n tai uudemman.",
        "new_in_version": "Uutta versiossa [latest_version]",
        "packages": "Pakkaukset",
        "permissions": "Käyttöoikeudet",
        "signed_by_developer": "Se on alkuperäisen kehittäjän rakentama ja allekirjoittama.",
        "signed_by_fdroid": "Se on F-Droidin rakentama ja allekirjoittama, ja se on taattu vastaamaan <a href=\"[source_code_url]\">tätä lähdetarjontaa</a>.",
        "source_code": "Lähdekoodi",
        "suggest_downloading_via_fdroid": "Vaikka APK-lataukset ovat saatavilla alla oman valintasi mukaan, sinun tulee tietää, että tätä kautta asentamalla et saa päivityspyyntöjä ja se on vähemmän turvallinen tapa ladata. Suosittelemme asentamaan F-Droid-sovelluksen ja käyttämään sitä.",
        "technical_info": "Tekniset tiedot",
        "version_info": "<b>Versio [package_version]</b> ([package_version_code]) - Lisätty [package_added_date]",
        "website": "Sivusto"
    },
    "sidebars": {
        "donate": {
            "bank_transfer_name": "Nimi",
            "bitcoin_alt": "Lahjoita Bitcoinin kautta",
            "flattr_alt": "Lahjoita Flattrin kautta",
            "heading": "Lahjoita",
            "hellotux": "👕 T-paidat 👕 myy",
            "hellotux_alt": "HELLOTUX",
            "hellotux_donation": "F-Droid saa 3€ kustakin myydystä paidasta.",
            "liberapay_alt": "Lahjoita Liberapayn kautta",
            "litecoin_alt": "Lahjoita Litecoinin kautta",
            "paypal_alt": "Lahjoita PayPalin kautta",
            "powered_by_donations": "F-Droid saa voimansa lahjoituksistasi!",
            "via_bank_transfer": "Pankkisiirto"
        },
        "last_updated": {
            "heading": "Viimeksi päivitetty"
        },
        "latest_packages": {
            "heading": "Uusimmat sovellukset"
        },
        "news": {
            "heading": "Uutiset"
        },
        "search": {
            "heading": "Löydä sovelluksia",
            "noscript": "Vaatii JavaScriptin ottamisen käyttöön",
            "search": "Hae"
        }
    }
}
